<?xml version="1.0" encoding="utf-8"?>
<svg xmlns="http://www.w3.org/2000/svg"
	xmlns:xlink="http://www.w3.org/1999/xlink"
	width="13px" height="48px" viewBox="0 0 13 48">
<filter filterUnits="objectBoundingBox" x="-600.00" y="-13.16" width="1300.00" height="126.32" id="filter0">
<feGaussianBlur in="SourceAlpha" stdDeviation="3.50" result="ogBlurOut"/>
<feFlood flood-color="rgb(173,1,109)" flood-opacity="0.46" result="ogFloodOut"/>
<feComposite in="ogFloodOut" in2="ogBlurOut" operator="in" result="ogRawGlow"/>
<feComposite in="ogRawGlow" in2="SourceAlpha" operator="out" result="outerGlow"/>
<feBlend in="outerGlow" in2="SourceGraphic" mode="normal" result="sourceGraphic"/>
<feImage x="6" y="5" width="1" height="38" preserveApectRatio="none" xlink:href="#symbol0"/>
<feComposite in="grImage1" in2="SourceAlpha" operator="in" result="grOverlay1"/>
<feBlend in="grOverlay1" in2="sourceGraphic" mode="normal" result="gradientOverlay1"/>
</filter>
<linearGradient id="linear_PSgrad_0" x1="125%" y1="50%" x2="-25%" y2="50%">
    <stop offset="0%" stop-color="rgb(214,0,108)" stop-opacity="1" />
    <stop offset="100%" stop-color="rgb(147,2,110)" stop-opacity="1" />
</linearGradient>

<defs>
<rect x="0" y="0" width="1" height="38" id="symbol0" fill="url(#linear_PSgrad_0)"/></defs>
<rect x="6" y="5" width="1" height="38" fill="rgb(201,0,125)" filter="url(#filter0)"/></svg>